-0.101021 -9.898979
-0.010001 -99.989999
-0.001000 -999.999000
-0.000100 -9999.999900
-0.000010 -99999.999990
-0.000001 -999999.999999
-0.000000 -10000000.000000
-0.000000 -100000000.000000
-0.000000 -1000000000.000000
-0.000000 -10000000000.000000
-0.000000 -100000000000.000000
-0.000000 -1000000000000.000000
-0.000000 -10000000000000.000000
-0.000000 -100000000000000.000000
-0.000000 -1000000000000000.000000
